%!PS

/in { 72 mul 1 div } def
/mm { 360 mul 127 div } def
/sru { 0.21 in mul 1 div } def
/sin { 8.64 mul 1 div } def
/slu { 0.3 in mul 1 div } def
/Courier findfont
12 scalefont
setfont
1 in 1 in translate
0 -0.2 in moveto
(Rack One) show
0 -0.4 in moveto
(ID or location file) show
0 -0.6 in moveto
(Owner) show
0 -0.8 in moveto
(rack_contact@example.com) show
0 0 moveto
newpath
0 0 moveto
0 46 sru rlineto
21 sin 0 rlineto
0 -46 sru rlineto
-21 sin 0 rlineto
stroke
newpath
1 sin 0 sin moveto
-1 sin 1 sru rmoveto
1 sin 0 rlineto
-1 sin 1 sru rmoveto
1 sin 0 rlineto
-1 sin 1 sru rmoveto
1 sin 0 rlineto
-1 sin 1 sru rmoveto
1 sin 0 rlineto
-1 sin 1 sru rmoveto
1 sin 0 rlineto
-1 sin 1 sru rmoveto
1 sin 0 rlineto
-1 sin 1 sru rmoveto
1 sin 0 rlineto
-1 sin 1 sru rmoveto
1 sin 0 rlineto
-1 sin 1 sru rmoveto
1 sin 0 rlineto
-1 sin 1 sru rmoveto
1 sin 0 rlineto
-1 sin 1 sru rmoveto
1 sin 0 rlineto
-1 sin 1 sru rmoveto
1 sin 0 rlineto
-1 sin 1 sru rmoveto
1 sin 0 rlineto
-1 sin 1 sru rmoveto
1 sin 0 rlineto
-1 sin 1 sru rmoveto
1 sin 0 rlineto
-1 sin 1 sru rmoveto
1 sin 0 rlineto
-1 sin 1 sru rmoveto
1 sin 0 rlineto
-1 sin 1 sru rmoveto
1 sin 0 rlineto
-1 sin 1 sru rmoveto
1 sin 0 rlineto
-1 sin 1 sru rmoveto
1 sin 0 rlineto
-1 sin 1 sru rmoveto
1 sin 0 rlineto
-1 sin 1 sru rmoveto
1 sin 0 rlineto
-1 sin 1 sru rmoveto
1 sin 0 rlineto
-1 sin 1 sru rmoveto
1 sin 0 rlineto
-1 sin 1 sru rmoveto
1 sin 0 rlineto
-1 sin 1 sru rmoveto
1 sin 0 rlineto
-1 sin 1 sru rmoveto
1 sin 0 rlineto
-1 sin 1 sru rmoveto
1 sin 0 rlineto
-1 sin 1 sru rmoveto
1 sin 0 rlineto
-1 sin 1 sru rmoveto
1 sin 0 rlineto
-1 sin 1 sru rmoveto
1 sin 0 rlineto
-1 sin 1 sru rmoveto
1 sin 0 rlineto
-1 sin 1 sru rmoveto
1 sin 0 rlineto
-1 sin 1 sru rmoveto
1 sin 0 rlineto
-1 sin 1 sru rmoveto
1 sin 0 rlineto
-1 sin 1 sru rmoveto
1 sin 0 rlineto
-1 sin 1 sru rmoveto
1 sin 0 rlineto
-1 sin 1 sru rmoveto
1 sin 0 rlineto
-1 sin 1 sru rmoveto
1 sin 0 rlineto
-1 sin 1 sru rmoveto
1 sin 0 rlineto
-1 sin 1 sru rmoveto
1 sin 0 rlineto
-1 sin 1 sru rmoveto
1 sin 0 rlineto
-1 sin 1 sru rmoveto
1 sin 0 rlineto
-1 sin 1 sru rmoveto
1 sin 0 rlineto
-1 sin 1 sru rmoveto
1 sin 0 rlineto
stroke
newpath
21 sin 0 sin moveto
-1 sin 1 sru rmoveto
1 sin 0 rlineto
-1 sin 1 sru rmoveto
1 sin 0 rlineto
-1 sin 1 sru rmoveto
1 sin 0 rlineto
-1 sin 1 sru rmoveto
1 sin 0 rlineto
-1 sin 1 sru rmoveto
1 sin 0 rlineto
-1 sin 1 sru rmoveto
1 sin 0 rlineto
-1 sin 1 sru rmoveto
1 sin 0 rlineto
-1 sin 1 sru rmoveto
1 sin 0 rlineto
-1 sin 1 sru rmoveto
1 sin 0 rlineto
-1 sin 1 sru rmoveto
1 sin 0 rlineto
-1 sin 1 sru rmoveto
1 sin 0 rlineto
-1 sin 1 sru rmoveto
1 sin 0 rlineto
-1 sin 1 sru rmoveto
1 sin 0 rlineto
-1 sin 1 sru rmoveto
1 sin 0 rlineto
-1 sin 1 sru rmoveto
1 sin 0 rlineto
-1 sin 1 sru rmoveto
1 sin 0 rlineto
-1 sin 1 sru rmoveto
1 sin 0 rlineto
-1 sin 1 sru rmoveto
1 sin 0 rlineto
-1 sin 1 sru rmoveto
1 sin 0 rlineto
-1 sin 1 sru rmoveto
1 sin 0 rlineto
-1 sin 1 sru rmoveto
1 sin 0 rlineto
-1 sin 1 sru rmoveto
1 sin 0 rlineto
-1 sin 1 sru rmoveto
1 sin 0 rlineto
-1 sin 1 sru rmoveto
1 sin 0 rlineto
-1 sin 1 sru rmoveto
1 sin 0 rlineto
-1 sin 1 sru rmoveto
1 sin 0 rlineto
-1 sin 1 sru rmoveto
1 sin 0 rlineto
-1 sin 1 sru rmoveto
1 sin 0 rlineto
-1 sin 1 sru rmoveto
1 sin 0 rlineto
-1 sin 1 sru rmoveto
1 sin 0 rlineto
-1 sin 1 sru rmoveto
1 sin 0 rlineto
-1 sin 1 sru rmoveto
1 sin 0 rlineto
-1 sin 1 sru rmoveto
1 sin 0 rlineto
-1 sin 1 sru rmoveto
1 sin 0 rlineto
-1 sin 1 sru rmoveto
1 sin 0 rlineto
-1 sin 1 sru rmoveto
1 sin 0 rlineto
-1 sin 1 sru rmoveto
1 sin 0 rlineto
-1 sin 1 sru rmoveto
1 sin 0 rlineto
-1 sin 1 sru rmoveto
1 sin 0 rlineto
-1 sin 1 sru rmoveto
1 sin 0 rlineto
-1 sin 1 sru rmoveto
1 sin 0 rlineto
-1 sin 1 sru rmoveto
1 sin 0 rlineto
-1 sin 1 sru rmoveto
1 sin 0 rlineto
-1 sin 1 sru rmoveto
1 sin 0 rlineto
-1 sin 1 sru rmoveto
1 sin 0 rlineto
stroke
0 45 sru translate


% Rack Item
%   name   - Network Drop
%   height - 1
%   r - 1
%   g - 0
%   b - 0

newpath
0 0 moveto
21 sin 0 lineto
21 sin 1 sru lineto
0 1 sru lineto
0 0 lineto
1 0 0 setrgbcolor
fill

newpath
0 0 moveto
21 sin 0 lineto
21 sin 1 sru lineto
0 1 sru lineto
0 0 lineto
0 setgray
stroke

2 sin 0.2 sin moveto
0 setgray
(Network Drop) show


0 -45 sru translate

0 5 sru translate


% Rack Item
%   name   - Cluster node 1
%   height - 1
%   r - 1
%   g - 0
%   b - 1

newpath
0 0 moveto
21 sin 0 lineto
21 sin 1 sru lineto
0 1 sru lineto
0 0 lineto
1 0 1 setrgbcolor
fill

newpath
0 0 moveto
21 sin 0 lineto
21 sin 1 sru lineto
0 1 sru lineto
0 0 lineto
0 setgray
stroke

2 sin 0.2 sin moveto
0 setgray
(Cluster node 1) show


0 -5 sru translate

0 6 sru translate


% Rack Item
%   name   - Cluster node 2
%   height - 1
%   r - 1
%   g - 0
%   b - 1

newpath
0 0 moveto
21 sin 0 lineto
21 sin 1 sru lineto
0 1 sru lineto
0 0 lineto
1 0 1 setrgbcolor
fill

newpath
0 0 moveto
21 sin 0 lineto
21 sin 1 sru lineto
0 1 sru lineto
0 0 lineto
0 setgray
stroke

2 sin 0.2 sin moveto
0 setgray
(Cluster node 2) show


0 -6 sru translate

0 7 sru translate


% Rack Item
%   name   - Cluster node 3
%   height - 1
%   r - 1
%   g - 0
%   b - 1

newpath
0 0 moveto
21 sin 0 lineto
21 sin 1 sru lineto
0 1 sru lineto
0 0 lineto
1 0 1 setrgbcolor
fill

newpath
0 0 moveto
21 sin 0 lineto
21 sin 1 sru lineto
0 1 sru lineto
0 0 lineto
0 setgray
stroke

2 sin 0.2 sin moveto
0 setgray
(Cluster node 3) show


0 -7 sru translate

0 8 sru translate


% Rack Item
%   name   - Cluster node 4
%   height - 1
%   r - 1
%   g - 0
%   b - 1

newpath
0 0 moveto
21 sin 0 lineto
21 sin 1 sru lineto
0 1 sru lineto
0 0 lineto
1 0 1 setrgbcolor
fill

newpath
0 0 moveto
21 sin 0 lineto
21 sin 1 sru lineto
0 1 sru lineto
0 0 lineto
0 setgray
stroke

2 sin 0.2 sin moveto
0 setgray
(Cluster node 4) show


0 -8 sru translate

0 9 sru translate


% Rack Item
%   name   - Cluster node 5
%   height - 1
%   r - 1
%   g - 0
%   b - 1

newpath
0 0 moveto
21 sin 0 lineto
21 sin 1 sru lineto
0 1 sru lineto
0 0 lineto
1 0 1 setrgbcolor
fill

newpath
0 0 moveto
21 sin 0 lineto
21 sin 1 sru lineto
0 1 sru lineto
0 0 lineto
0 setgray
stroke

2 sin 0.2 sin moveto
0 setgray
(Cluster node 5) show


0 -9 sru translate

0 10 sru translate


% Rack Item
%   name   - Cluster node 6
%   height - 1
%   r - 1
%   g - 0
%   b - 1

newpath
0 0 moveto
21 sin 0 lineto
21 sin 1 sru lineto
0 1 sru lineto
0 0 lineto
1 0 1 setrgbcolor
fill

newpath
0 0 moveto
21 sin 0 lineto
21 sin 1 sru lineto
0 1 sru lineto
0 0 lineto
0 setgray
stroke

2 sin 0.2 sin moveto
0 setgray
(Cluster node 6) show


0 -10 sru translate

0 11 sru translate


% Rack Item
%   name   - Cluster node 7
%   height - 1
%   r - 1
%   g - 0
%   b - 1

newpath
0 0 moveto
21 sin 0 lineto
21 sin 1 sru lineto
0 1 sru lineto
0 0 lineto
1 0 1 setrgbcolor
fill

newpath
0 0 moveto
21 sin 0 lineto
21 sin 1 sru lineto
0 1 sru lineto
0 0 lineto
0 setgray
stroke

2 sin 0.2 sin moveto
0 setgray
(Cluster node 7) show


0 -11 sru translate

0 12 sru translate


% Rack Item
%   name   - Cluster node 8
%   height - 1
%   r - 1
%   g - 0
%   b - 1

newpath
0 0 moveto
21 sin 0 lineto
21 sin 1 sru lineto
0 1 sru lineto
0 0 lineto
1 0 1 setrgbcolor
fill

newpath
0 0 moveto
21 sin 0 lineto
21 sin 1 sru lineto
0 1 sru lineto
0 0 lineto
0 setgray
stroke

2 sin 0.2 sin moveto
0 setgray
(Cluster node 8) show


0 -12 sru translate

0 13 sru translate


% Rack Item
%   name   - Cluster node 9
%   height - 1
%   r - 1
%   g - 0
%   b - 1

newpath
0 0 moveto
21 sin 0 lineto
21 sin 1 sru lineto
0 1 sru lineto
0 0 lineto
1 0 1 setrgbcolor
fill

newpath
0 0 moveto
21 sin 0 lineto
21 sin 1 sru lineto
0 1 sru lineto
0 0 lineto
0 setgray
stroke

2 sin 0.2 sin moveto
0 setgray
(Cluster node 9) show


0 -13 sru translate

0 14 sru translate


% Rack Item
%   name   - Cluster node 10
%   height - 1
%   r - 1
%   g - 0
%   b - 1

newpath
0 0 moveto
21 sin 0 lineto
21 sin 1 sru lineto
0 1 sru lineto
0 0 lineto
1 0 1 setrgbcolor
fill

newpath
0 0 moveto
21 sin 0 lineto
21 sin 1 sru lineto
0 1 sru lineto
0 0 lineto
0 setgray
stroke

2 sin 0.2 sin moveto
0 setgray
(Cluster node 10) show


0 -14 sru translate

0 15 sru translate


% Rack Item
%   name   - Cluster node 11
%   height - 1
%   r - 1
%   g - 0
%   b - 1

newpath
0 0 moveto
21 sin 0 lineto
21 sin 1 sru lineto
0 1 sru lineto
0 0 lineto
1 0 1 setrgbcolor
fill

newpath
0 0 moveto
21 sin 0 lineto
21 sin 1 sru lineto
0 1 sru lineto
0 0 lineto
0 setgray
stroke

2 sin 0.2 sin moveto
0 setgray
(Cluster node 11) show


0 -15 sru translate

0 16 sru translate


% Rack Item
%   name   - Cluster node 12
%   height - 1
%   r - 1
%   g - 0
%   b - 1

newpath
0 0 moveto
21 sin 0 lineto
21 sin 1 sru lineto
0 1 sru lineto
0 0 lineto
1 0 1 setrgbcolor
fill

newpath
0 0 moveto
21 sin 0 lineto
21 sin 1 sru lineto
0 1 sru lineto
0 0 lineto
0 setgray
stroke

2 sin 0.2 sin moveto
0 setgray
(Cluster node 12) show


0 -16 sru translate

0 4 sru translate


% Rack Item
%   name   - Cluster IPMI Switch
%   height - 1
%   r - 0
%   g - 1
%   b - 0

newpath
0 0 moveto
21 sin 0 lineto
21 sin 1 sru lineto
0 1 sru lineto
0 0 lineto
0 1 0 setrgbcolor
fill

newpath
0 0 moveto
21 sin 0 lineto
21 sin 1 sru lineto
0 1 sru lineto
0 0 lineto
0 setgray
stroke

2 sin 0.2 sin moveto
0 setgray
(Cluster IPMI Switch) show


0 -4 sru translate

0 17 sru translate


% Rack Item
%   name   - Cluster Switch
%   height - 1
%   r - 0
%   g - 1
%   b - 0

newpath
0 0 moveto
21 sin 0 lineto
21 sin 1 sru lineto
0 1 sru lineto
0 0 lineto
0 1 0 setrgbcolor
fill

newpath
0 0 moveto
21 sin 0 lineto
21 sin 1 sru lineto
0 1 sru lineto
0 0 lineto
0 setgray
stroke

2 sin 0.2 sin moveto
0 setgray
(Cluster Switch) show


0 -17 sru translate

newpath
1 sin 0 moveto
0 46 sru rlineto
19 sin 0 rlineto
0 -46 sru rlineto
-19 sin 0 rlineto
stroke
3.25 in 0 translate
0 -0.2 in moveto
(Name) show
0 -0.4 in moveto
(A8) show
0 -0.6 in moveto
(Org) show
0 -0.8 in moveto
(root@example.com) show
0 0 moveto
newpath
0 0 moveto
0 46 sru rlineto
21 sin 0 rlineto
0 -46 sru rlineto
-21 sin 0 rlineto
stroke
newpath
1 sin 0 sin moveto
-1 sin 1 sru rmoveto
1 sin 0 rlineto
-1 sin 1 sru rmoveto
1 sin 0 rlineto
-1 sin 1 sru rmoveto
1 sin 0 rlineto
-1 sin 1 sru rmoveto
1 sin 0 rlineto
-1 sin 1 sru rmoveto
1 sin 0 rlineto
-1 sin 1 sru rmoveto
1 sin 0 rlineto
-1 sin 1 sru rmoveto
1 sin 0 rlineto
-1 sin 1 sru rmoveto
1 sin 0 rlineto
-1 sin 1 sru rmoveto
1 sin 0 rlineto
-1 sin 1 sru rmoveto
1 sin 0 rlineto
-1 sin 1 sru rmoveto
1 sin 0 rlineto
-1 sin 1 sru rmoveto
1 sin 0 rlineto
-1 sin 1 sru rmoveto
1 sin 0 rlineto
-1 sin 1 sru rmoveto
1 sin 0 rlineto
-1 sin 1 sru rmoveto
1 sin 0 rlineto
-1 sin 1 sru rmoveto
1 sin 0 rlineto
-1 sin 1 sru rmoveto
1 sin 0 rlineto
-1 sin 1 sru rmoveto
1 sin 0 rlineto
-1 sin 1 sru rmoveto
1 sin 0 rlineto
-1 sin 1 sru rmoveto
1 sin 0 rlineto
-1 sin 1 sru rmoveto
1 sin 0 rlineto
-1 sin 1 sru rmoveto
1 sin 0 rlineto
-1 sin 1 sru rmoveto
1 sin 0 rlineto
-1 sin 1 sru rmoveto
1 sin 0 rlineto
-1 sin 1 sru rmoveto
1 sin 0 rlineto
-1 sin 1 sru rmoveto
1 sin 0 rlineto
-1 sin 1 sru rmoveto
1 sin 0 rlineto
-1 sin 1 sru rmoveto
1 sin 0 rlineto
-1 sin 1 sru rmoveto
1 sin 0 rlineto
-1 sin 1 sru rmoveto
1 sin 0 rlineto
-1 sin 1 sru rmoveto
1 sin 0 rlineto
-1 sin 1 sru rmoveto
1 sin 0 rlineto
-1 sin 1 sru rmoveto
1 sin 0 rlineto
-1 sin 1 sru rmoveto
1 sin 0 rlineto
-1 sin 1 sru rmoveto
1 sin 0 rlineto
-1 sin 1 sru rmoveto
1 sin 0 rlineto
-1 sin 1 sru rmoveto
1 sin 0 rlineto
-1 sin 1 sru rmoveto
1 sin 0 rlineto
-1 sin 1 sru rmoveto
1 sin 0 rlineto
-1 sin 1 sru rmoveto
1 sin 0 rlineto
-1 sin 1 sru rmoveto
1 sin 0 rlineto
-1 sin 1 sru rmoveto
1 sin 0 rlineto
-1 sin 1 sru rmoveto
1 sin 0 rlineto
-1 sin 1 sru rmoveto
1 sin 0 rlineto
-1 sin 1 sru rmoveto
1 sin 0 rlineto
stroke
newpath
21 sin 0 sin moveto
-1 sin 1 sru rmoveto
1 sin 0 rlineto
-1 sin 1 sru rmoveto
1 sin 0 rlineto
-1 sin 1 sru rmoveto
1 sin 0 rlineto
-1 sin 1 sru rmoveto
1 sin 0 rlineto
-1 sin 1 sru rmoveto
1 sin 0 rlineto
-1 sin 1 sru rmoveto
1 sin 0 rlineto
-1 sin 1 sru rmoveto
1 sin 0 rlineto
-1 sin 1 sru rmoveto
1 sin 0 rlineto
-1 sin 1 sru rmoveto
1 sin 0 rlineto
-1 sin 1 sru rmoveto
1 sin 0 rlineto
-1 sin 1 sru rmoveto
1 sin 0 rlineto
-1 sin 1 sru rmoveto
1 sin 0 rlineto
-1 sin 1 sru rmoveto
1 sin 0 rlineto
-1 sin 1 sru rmoveto
1 sin 0 rlineto
-1 sin 1 sru rmoveto
1 sin 0 rlineto
-1 sin 1 sru rmoveto
1 sin 0 rlineto
-1 sin 1 sru rmoveto
1 sin 0 rlineto
-1 sin 1 sru rmoveto
1 sin 0 rlineto
-1 sin 1 sru rmoveto
1 sin 0 rlineto
-1 sin 1 sru rmoveto
1 sin 0 rlineto
-1 sin 1 sru rmoveto
1 sin 0 rlineto
-1 sin 1 sru rmoveto
1 sin 0 rlineto
-1 sin 1 sru rmoveto
1 sin 0 rlineto
-1 sin 1 sru rmoveto
1 sin 0 rlineto
-1 sin 1 sru rmoveto
1 sin 0 rlineto
-1 sin 1 sru rmoveto
1 sin 0 rlineto
-1 sin 1 sru rmoveto
1 sin 0 rlineto
-1 sin 1 sru rmoveto
1 sin 0 rlineto
-1 sin 1 sru rmoveto
1 sin 0 rlineto
-1 sin 1 sru rmoveto
1 sin 0 rlineto
-1 sin 1 sru rmoveto
1 sin 0 rlineto
-1 sin 1 sru rmoveto
1 sin 0 rlineto
-1 sin 1 sru rmoveto
1 sin 0 rlineto
-1 sin 1 sru rmoveto
1 sin 0 rlineto
-1 sin 1 sru rmoveto
1 sin 0 rlineto
-1 sin 1 sru rmoveto
1 sin 0 rlineto
-1 sin 1 sru rmoveto
1 sin 0 rlineto
-1 sin 1 sru rmoveto
1 sin 0 rlineto
-1 sin 1 sru rmoveto
1 sin 0 rlineto
-1 sin 1 sru rmoveto
1 sin 0 rlineto
-1 sin 1 sru rmoveto
1 sin 0 rlineto
-1 sin 1 sru rmoveto
1 sin 0 rlineto
-1 sin 1 sru rmoveto
1 sin 0 rlineto
-1 sin 1 sru rmoveto
1 sin 0 rlineto
-1 sin 1 sru rmoveto
1 sin 0 rlineto
stroke
0 45 sru translate


% Rack Item
%   name   - Network Drop
%   height - 1
%   r - 1
%   g - 0
%   b - 0

newpath
0 0 moveto
21 sin 0 lineto
21 sin 1 sru lineto
0 1 sru lineto
0 0 lineto
1 0 0 setrgbcolor
fill

newpath
0 0 moveto
21 sin 0 lineto
21 sin 1 sru lineto
0 1 sru lineto
0 0 lineto
0 setgray
stroke

2 sin 0.2 sin moveto
0 setgray
(Network Drop) show


0 -45 sru translate

0 4 sru translate


% Rack Item
%   name   - Blade Center
%   height - 8

newpath
0 0 moveto
21 sin 0 lineto
21 sin 8 sru lineto
0 8 sru lineto
0 0 lineto
0.7 setgray
fill

newpath
0 0 moveto
21 sin 0 lineto
21 sin 8 sru lineto
0 8 sru lineto
0 0 lineto
0 setgray
stroke

2 sin 0.2 sin moveto
0 setgray
(Blade Center) show

1 sin 1 sru translate

90 rotate
0 -1 sru translate


% Rack Item
%   name   - blade 1
%   height - 1
%   r - 0.5
%   g - 0
%   b - 1

newpath
0 0 moveto
7 sru 0 lineto
7 sru 1 sru lineto
0 1 sru lineto
0 0 lineto
0.5 0 1 setrgbcolor
fill

newpath
0 0 moveto
7 sru 0 lineto
7 sru 1 sru lineto
0 1 sru lineto
0 0 lineto
0 setgray
stroke

0.2 sin 0.2 sin moveto
0 setgray
(blade 1) show


0 1 sru translate

0 -2 sru translate


% Rack Item
%   name   - blade 2
%   height - 1
%   r - 0.5
%   g - 1
%   b - 1

newpath
0 0 moveto
7 sru 0 lineto
7 sru 1 sru lineto
0 1 sru lineto
0 0 lineto
0.5 1 1 setrgbcolor
fill

newpath
0 0 moveto
7 sru 0 lineto
7 sru 1 sru lineto
0 1 sru lineto
0 0 lineto
0 setgray
stroke

0.2 sin 0.2 sin moveto
0 setgray
(blade 2) show


0 2 sru translate

-90 rotate
-1 sin -1 sru translate


0 -4 sru translate

newpath
1 sin 0 moveto
0 46 sru rlineto
19 sin 0 rlineto
0 -46 sru rlineto
-19 sin 0 rlineto
stroke
showpage
1 in 1 in translate
0 -0.2 in moveto
(Test half rack) show
0 -0.4 in moveto
(B4) show
0 -0.6 in moveto
(Test owner) show
0 -0.8 in moveto
(i_am_short@example.com) show
0 0 moveto
newpath
0 0 moveto
0 23 sru rlineto
21 sin 0 rlineto
0 -23 sru rlineto
-21 sin 0 rlineto
stroke
newpath
1 sin 0 sin moveto
-1 sin 1 sru rmoveto
1 sin 0 rlineto
-1 sin 1 sru rmoveto
1 sin 0 rlineto
-1 sin 1 sru rmoveto
1 sin 0 rlineto
-1 sin 1 sru rmoveto
1 sin 0 rlineto
-1 sin 1 sru rmoveto
1 sin 0 rlineto
-1 sin 1 sru rmoveto
1 sin 0 rlineto
-1 sin 1 sru rmoveto
1 sin 0 rlineto
-1 sin 1 sru rmoveto
1 sin 0 rlineto
-1 sin 1 sru rmoveto
1 sin 0 rlineto
-1 sin 1 sru rmoveto
1 sin 0 rlineto
-1 sin 1 sru rmoveto
1 sin 0 rlineto
-1 sin 1 sru rmoveto
1 sin 0 rlineto
-1 sin 1 sru rmoveto
1 sin 0 rlineto
-1 sin 1 sru rmoveto
1 sin 0 rlineto
-1 sin 1 sru rmoveto
1 sin 0 rlineto
-1 sin 1 sru rmoveto
1 sin 0 rlineto
-1 sin 1 sru rmoveto
1 sin 0 rlineto
-1 sin 1 sru rmoveto
1 sin 0 rlineto
-1 sin 1 sru rmoveto
1 sin 0 rlineto
-1 sin 1 sru rmoveto
1 sin 0 rlineto
-1 sin 1 sru rmoveto
1 sin 0 rlineto
-1 sin 1 sru rmoveto
1 sin 0 rlineto
stroke
newpath
21 sin 0 sin moveto
-1 sin 1 sru rmoveto
1 sin 0 rlineto
-1 sin 1 sru rmoveto
1 sin 0 rlineto
-1 sin 1 sru rmoveto
1 sin 0 rlineto
-1 sin 1 sru rmoveto
1 sin 0 rlineto
-1 sin 1 sru rmoveto
1 sin 0 rlineto
-1 sin 1 sru rmoveto
1 sin 0 rlineto
-1 sin 1 sru rmoveto
1 sin 0 rlineto
-1 sin 1 sru rmoveto
1 sin 0 rlineto
-1 sin 1 sru rmoveto
1 sin 0 rlineto
-1 sin 1 sru rmoveto
1 sin 0 rlineto
-1 sin 1 sru rmoveto
1 sin 0 rlineto
-1 sin 1 sru rmoveto
1 sin 0 rlineto
-1 sin 1 sru rmoveto
1 sin 0 rlineto
-1 sin 1 sru rmoveto
1 sin 0 rlineto
-1 sin 1 sru rmoveto
1 sin 0 rlineto
-1 sin 1 sru rmoveto
1 sin 0 rlineto
-1 sin 1 sru rmoveto
1 sin 0 rlineto
-1 sin 1 sru rmoveto
1 sin 0 rlineto
-1 sin 1 sru rmoveto
1 sin 0 rlineto
-1 sin 1 sru rmoveto
1 sin 0 rlineto
-1 sin 1 sru rmoveto
1 sin 0 rlineto
-1 sin 1 sru rmoveto
1 sin 0 rlineto
stroke
0 22 sru translate


% Rack Item
%   name   - Network Drop
%   height - 1
%   r - 1
%   g - 0
%   b - 0

newpath
0 0 moveto
21 sin 0 lineto
21 sin 1 sru lineto
0 1 sru lineto
0 0 lineto
1 0 0 setrgbcolor
fill

newpath
0 0 moveto
21 sin 0 lineto
21 sin 1 sru lineto
0 1 sru lineto
0 0 lineto
0 setgray
stroke

2 sin 0.2 sin moveto
0 setgray
(Network Drop) show


0 -22 sru translate

0 10 sru translate


% Rack Item
%   name   - example 2u
%   height - 2
%   r - 0.4
%   g - 0.8
%   b - 0.2

newpath
0 0 moveto
21 sin 0 lineto
21 sin 2 sru lineto
0 2 sru lineto
0 0 lineto
0.4 0.8 0.2 setrgbcolor
fill

newpath
0 0 moveto
21 sin 0 lineto
21 sin 2 sru lineto
0 2 sru lineto
0 0 lineto
0 setgray
stroke

2 sin 0.2 sin moveto
0 setgray
(example 2u) show


0 -10 sru translate

newpath
1 sin 0 moveto
0 23 sru rlineto
19 sin 0 rlineto
0 -23 sru rlineto
-19 sin 0 rlineto
stroke
showpage
1 in 1 in translate
0 -0.2 in moveto
(Test Lab) show
0 -0.4 in moveto
(aa-bbbb) show
0 -0.6 in moveto
(Example Department) show
0 -0.8 in moveto
(labmaster@example.com) show
0 0 moveto
0.8 setgray
newpath
0 slu 0 moveto
0 slu 21 slu lineto
stroke
newpath
1 slu 0 moveto
1 slu 21 slu lineto
stroke
newpath
2 slu 0 moveto
2 slu 21 slu lineto
stroke
newpath
3 slu 0 moveto
3 slu 21 slu lineto
stroke
newpath
4 slu 0 moveto
4 slu 21 slu lineto
stroke
newpath
5 slu 0 moveto
5 slu 21 slu lineto
stroke
newpath
6 slu 0 moveto
6 slu 21 slu lineto
stroke
newpath
7 slu 0 moveto
7 slu 21 slu lineto
stroke
newpath
8 slu 0 moveto
8 slu 21 slu lineto
stroke
newpath
9 slu 0 moveto
9 slu 21 slu lineto
stroke
newpath
10 slu 0 moveto
10 slu 21 slu lineto
stroke
newpath
11 slu 0 moveto
11 slu 21 slu lineto
stroke
newpath
0 slu 0 slu moveto
12 slu 0 slu lineto
stroke
newpath
0 slu 1 slu moveto
12 slu 1 slu lineto
stroke
newpath
0 slu 2 slu moveto
12 slu 2 slu lineto
stroke
newpath
0 slu 3 slu moveto
12 slu 3 slu lineto
stroke
newpath
0 slu 4 slu moveto
12 slu 4 slu lineto
stroke
newpath
0 slu 5 slu moveto
12 slu 5 slu lineto
stroke
newpath
0 slu 6 slu moveto
12 slu 6 slu lineto
stroke
newpath
0 slu 7 slu moveto
12 slu 7 slu lineto
stroke
newpath
0 slu 8 slu moveto
12 slu 8 slu lineto
stroke
newpath
0 slu 9 slu moveto
12 slu 9 slu lineto
stroke
newpath
0 slu 10 slu moveto
12 slu 10 slu lineto
stroke
newpath
0 slu 11 slu moveto
12 slu 11 slu lineto
stroke
newpath
0 slu 12 slu moveto
12 slu 12 slu lineto
stroke
newpath
0 slu 13 slu moveto
12 slu 13 slu lineto
stroke
newpath
0 slu 14 slu moveto
12 slu 14 slu lineto
stroke
newpath
0 slu 15 slu moveto
12 slu 15 slu lineto
stroke
newpath
0 slu 16 slu moveto
12 slu 16 slu lineto
stroke
newpath
0 slu 17 slu moveto
12 slu 17 slu lineto
stroke
newpath
0 slu 18 slu moveto
12 slu 18 slu lineto
stroke
newpath
0 slu 19 slu moveto
12 slu 19 slu lineto
stroke
newpath
0 slu 20 slu moveto
12 slu 20 slu lineto
stroke
1 slu 2 slu translate

% Workstation
%   name   - 
%   width  - 1
%   length - 1

newpath
0 0 moveto
0 slu 1 slu lineto
1 slu 1 slu lineto
1 slu 0 slu lineto
0 0 lineto
0.7 0.7 0.7 setrgbcolor
fill

newpath
0 0 moveto
0 slu 1 slu lineto
1 slu 1 slu lineto
1 slu 0 slu lineto
0 0 lineto
0 setgray
stroke

0.2 sin 0.2 sin moveto
0 setgray
() show


-1 slu -2 slu translate
1 slu 3 slu translate

% Workstation
%   name   - 
%   width  - 1
%   length - 1

newpath
0 0 moveto
0 slu 1 slu lineto
1 slu 1 slu lineto
1 slu 0 slu lineto
0 0 lineto
0.7 0.7 0.7 setrgbcolor
fill

newpath
0 0 moveto
0 slu 1 slu lineto
1 slu 1 slu lineto
1 slu 0 slu lineto
0 0 lineto
0 setgray
stroke

0.2 sin 0.2 sin moveto
0 setgray
() show


-1 slu -3 slu translate
1 slu 4 slu translate

% Workstation
%   name   - 
%   width  - 1
%   length - 1

newpath
0 0 moveto
0 slu 1 slu lineto
1 slu 1 slu lineto
1 slu 0 slu lineto
0 0 lineto
0.7 0.7 0.7 setrgbcolor
fill

newpath
0 0 moveto
0 slu 1 slu lineto
1 slu 1 slu lineto
1 slu 0 slu lineto
0 0 lineto
0 setgray
stroke

0.2 sin 0.2 sin moveto
0 setgray
() show


-1 slu -4 slu translate
1 slu 5 slu translate

% Workstation
%   name   - 
%   width  - 1
%   length - 1

newpath
0 0 moveto
0 slu 1 slu lineto
1 slu 1 slu lineto
1 slu 0 slu lineto
0 0 lineto
0.7 0.7 0.7 setrgbcolor
fill

newpath
0 0 moveto
0 slu 1 slu lineto
1 slu 1 slu lineto
1 slu 0 slu lineto
0 0 lineto
0 setgray
stroke

0.2 sin 0.2 sin moveto
0 setgray
() show


-1 slu -5 slu translate
1 slu 6 slu translate

% Workstation
%   name   - 
%   width  - 1
%   length - 1

newpath
0 0 moveto
0 slu 1 slu lineto
1 slu 1 slu lineto
1 slu 0 slu lineto
0 0 lineto
0.7 0.7 0.7 setrgbcolor
fill

newpath
0 0 moveto
0 slu 1 slu lineto
1 slu 1 slu lineto
1 slu 0 slu lineto
0 0 lineto
0 setgray
stroke

0.2 sin 0.2 sin moveto
0 setgray
() show


-1 slu -6 slu translate
1 slu 7 slu translate

% Workstation
%   name   - 
%   width  - 1
%   length - 1

newpath
0 0 moveto
0 slu 1 slu lineto
1 slu 1 slu lineto
1 slu 0 slu lineto
0 0 lineto
0.7 0.7 0.7 setrgbcolor
fill

newpath
0 0 moveto
0 slu 1 slu lineto
1 slu 1 slu lineto
1 slu 0 slu lineto
0 0 lineto
0 setgray
stroke

0.2 sin 0.2 sin moveto
0 setgray
() show


-1 slu -7 slu translate
1 slu 10 slu translate

% Workstation
%   name   - 
%   width  - 1
%   length - 1

newpath
0 0 moveto
0 slu 1 slu lineto
1 slu 1 slu lineto
1 slu 0 slu lineto
0 0 lineto
0.7 0.7 0.7 setrgbcolor
fill

newpath
0 0 moveto
0 slu 1 slu lineto
1 slu 1 slu lineto
1 slu 0 slu lineto
0 0 lineto
0 setgray
stroke

0.2 sin 0.2 sin moveto
0 setgray
() show


-1 slu -10 slu translate
1 slu 11 slu translate

% Workstation
%   name   - 
%   width  - 1
%   length - 1

newpath
0 0 moveto
0 slu 1 slu lineto
1 slu 1 slu lineto
1 slu 0 slu lineto
0 0 lineto
0.7 0.7 0.7 setrgbcolor
fill

newpath
0 0 moveto
0 slu 1 slu lineto
1 slu 1 slu lineto
1 slu 0 slu lineto
0 0 lineto
0 setgray
stroke

0.2 sin 0.2 sin moveto
0 setgray
() show


-1 slu -11 slu translate
1 slu 12 slu translate

% Workstation
%   name   - 
%   width  - 1
%   length - 1

newpath
0 0 moveto
0 slu 1 slu lineto
1 slu 1 slu lineto
1 slu 0 slu lineto
0 0 lineto
0.7 0.7 0.7 setrgbcolor
fill

newpath
0 0 moveto
0 slu 1 slu lineto
1 slu 1 slu lineto
1 slu 0 slu lineto
0 0 lineto
0 setgray
stroke

0.2 sin 0.2 sin moveto
0 setgray
() show


-1 slu -12 slu translate
1 slu 13 slu translate

% Workstation
%   name   - 
%   width  - 1
%   length - 1

newpath
0 0 moveto
0 slu 1 slu lineto
1 slu 1 slu lineto
1 slu 0 slu lineto
0 0 lineto
0.7 0.7 0.7 setrgbcolor
fill

newpath
0 0 moveto
0 slu 1 slu lineto
1 slu 1 slu lineto
1 slu 0 slu lineto
0 0 lineto
0 setgray
stroke

0.2 sin 0.2 sin moveto
0 setgray
() show


-1 slu -13 slu translate
1 slu 14 slu translate

% Workstation
%   name   - 
%   width  - 1
%   length - 1

newpath
0 0 moveto
0 slu 1 slu lineto
1 slu 1 slu lineto
1 slu 0 slu lineto
0 0 lineto
0.7 0.7 0.7 setrgbcolor
fill

newpath
0 0 moveto
0 slu 1 slu lineto
1 slu 1 slu lineto
1 slu 0 slu lineto
0 0 lineto
0 setgray
stroke

0.2 sin 0.2 sin moveto
0 setgray
() show


-1 slu -14 slu translate
1 slu 15 slu translate

% Workstation
%   name   - 
%   width  - 1
%   length - 1

newpath
0 0 moveto
0 slu 1 slu lineto
1 slu 1 slu lineto
1 slu 0 slu lineto
0 0 lineto
0.7 0.7 0.7 setrgbcolor
fill

newpath
0 0 moveto
0 slu 1 slu lineto
1 slu 1 slu lineto
1 slu 0 slu lineto
0 0 lineto
0 setgray
stroke

0.2 sin 0.2 sin moveto
0 setgray
() show


-1 slu -15 slu translate
1 slu 18 slu translate

% Workstation
%   name   - 
%   width  - 1
%   length - 1

newpath
0 0 moveto
0 slu 1 slu lineto
1 slu 1 slu lineto
1 slu 0 slu lineto
0 0 lineto
0.7 0.7 0.7 setrgbcolor
fill

newpath
0 0 moveto
0 slu 1 slu lineto
1 slu 1 slu lineto
1 slu 0 slu lineto
0 0 lineto
0 setgray
stroke

0.2 sin 0.2 sin moveto
0 setgray
() show


-1 slu -18 slu translate
1 slu 19 slu translate

% Workstation
%   name   - 
%   width  - 1
%   length - 1

newpath
0 0 moveto
0 slu 1 slu lineto
1 slu 1 slu lineto
1 slu 0 slu lineto
0 0 lineto
0.7 0.7 0.7 setrgbcolor
fill

newpath
0 0 moveto
0 slu 1 slu lineto
1 slu 1 slu lineto
1 slu 0 slu lineto
0 0 lineto
0 setgray
stroke

0.2 sin 0.2 sin moveto
0 setgray
() show


-1 slu -19 slu translate
1 slu 20 slu translate

% Workstation
%   name   - 
%   width  - 1
%   length - 1

newpath
0 0 moveto
0 slu 1 slu lineto
1 slu 1 slu lineto
1 slu 0 slu lineto
0 0 lineto
0.7 0.7 0.7 setrgbcolor
fill

newpath
0 0 moveto
0 slu 1 slu lineto
1 slu 1 slu lineto
1 slu 0 slu lineto
0 0 lineto
0 setgray
stroke

0.2 sin 0.2 sin moveto
0 setgray
() show


-1 slu -20 slu translate
4 slu 2 slu translate

% Workstation
%   name   - 
%   width  - 1
%   length - 1

newpath
0 0 moveto
0 slu 1 slu lineto
1 slu 1 slu lineto
1 slu 0 slu lineto
0 0 lineto
0.7 0.7 0.7 setrgbcolor
fill

newpath
0 0 moveto
0 slu 1 slu lineto
1 slu 1 slu lineto
1 slu 0 slu lineto
0 0 lineto
0 setgray
stroke

0.2 sin 0.2 sin moveto
0 setgray
() show


-4 slu -2 slu translate
4 slu 3 slu translate

% Workstation
%   name   - 
%   width  - 1
%   length - 1

newpath
0 0 moveto
0 slu 1 slu lineto
1 slu 1 slu lineto
1 slu 0 slu lineto
0 0 lineto
0.7 0.7 0.7 setrgbcolor
fill

newpath
0 0 moveto
0 slu 1 slu lineto
1 slu 1 slu lineto
1 slu 0 slu lineto
0 0 lineto
0 setgray
stroke

0.2 sin 0.2 sin moveto
0 setgray
() show


-4 slu -3 slu translate
4 slu 4 slu translate

% Workstation
%   name   - 
%   width  - 1
%   length - 1

newpath
0 0 moveto
0 slu 1 slu lineto
1 slu 1 slu lineto
1 slu 0 slu lineto
0 0 lineto
0.7 0.7 0.7 setrgbcolor
fill

newpath
0 0 moveto
0 slu 1 slu lineto
1 slu 1 slu lineto
1 slu 0 slu lineto
0 0 lineto
0 setgray
stroke

0.2 sin 0.2 sin moveto
0 setgray
() show


-4 slu -4 slu translate
4 slu 5 slu translate

% Workstation
%   name   - 
%   width  - 1
%   length - 1

newpath
0 0 moveto
0 slu 1 slu lineto
1 slu 1 slu lineto
1 slu 0 slu lineto
0 0 lineto
0.7 0.7 0.7 setrgbcolor
fill

newpath
0 0 moveto
0 slu 1 slu lineto
1 slu 1 slu lineto
1 slu 0 slu lineto
0 0 lineto
0 setgray
stroke

0.2 sin 0.2 sin moveto
0 setgray
() show


-4 slu -5 slu translate
4 slu 6 slu translate

% Workstation
%   name   - 
%   width  - 1
%   length - 1

newpath
0 0 moveto
0 slu 1 slu lineto
1 slu 1 slu lineto
1 slu 0 slu lineto
0 0 lineto
0.7 0.7 0.7 setrgbcolor
fill

newpath
0 0 moveto
0 slu 1 slu lineto
1 slu 1 slu lineto
1 slu 0 slu lineto
0 0 lineto
0 setgray
stroke

0.2 sin 0.2 sin moveto
0 setgray
() show


-4 slu -6 slu translate
4 slu 7 slu translate

% Workstation
%   name   - 
%   width  - 1
%   length - 1

newpath
0 0 moveto
0 slu 1 slu lineto
1 slu 1 slu lineto
1 slu 0 slu lineto
0 0 lineto
0.7 0.7 0.7 setrgbcolor
fill

newpath
0 0 moveto
0 slu 1 slu lineto
1 slu 1 slu lineto
1 slu 0 slu lineto
0 0 lineto
0 setgray
stroke

0.2 sin 0.2 sin moveto
0 setgray
() show


-4 slu -7 slu translate
4 slu 10 slu translate

% Workstation
%   name   - 
%   width  - 1
%   length - 1

newpath
0 0 moveto
0 slu 1 slu lineto
1 slu 1 slu lineto
1 slu 0 slu lineto
0 0 lineto
0.7 0.7 0.7 setrgbcolor
fill

newpath
0 0 moveto
0 slu 1 slu lineto
1 slu 1 slu lineto
1 slu 0 slu lineto
0 0 lineto
0 setgray
stroke

0.2 sin 0.2 sin moveto
0 setgray
() show


-4 slu -10 slu translate
4 slu 11 slu translate

% Workstation
%   name   - 
%   width  - 1
%   length - 1

newpath
0 0 moveto
0 slu 1 slu lineto
1 slu 1 slu lineto
1 slu 0 slu lineto
0 0 lineto
0.7 0.7 0.7 setrgbcolor
fill

newpath
0 0 moveto
0 slu 1 slu lineto
1 slu 1 slu lineto
1 slu 0 slu lineto
0 0 lineto
0 setgray
stroke

0.2 sin 0.2 sin moveto
0 setgray
() show


-4 slu -11 slu translate
4 slu 12 slu translate

% Workstation
%   name   - 
%   width  - 1
%   length - 1

newpath
0 0 moveto
0 slu 1 slu lineto
1 slu 1 slu lineto
1 slu 0 slu lineto
0 0 lineto
0.7 0.7 0.7 setrgbcolor
fill

newpath
0 0 moveto
0 slu 1 slu lineto
1 slu 1 slu lineto
1 slu 0 slu lineto
0 0 lineto
0 setgray
stroke

0.2 sin 0.2 sin moveto
0 setgray
() show


-4 slu -12 slu translate
4 slu 13 slu translate

% Workstation
%   name   - 
%   width  - 1
%   length - 1

newpath
0 0 moveto
0 slu 1 slu lineto
1 slu 1 slu lineto
1 slu 0 slu lineto
0 0 lineto
0.7 0.7 0.7 setrgbcolor
fill

newpath
0 0 moveto
0 slu 1 slu lineto
1 slu 1 slu lineto
1 slu 0 slu lineto
0 0 lineto
0 setgray
stroke

0.2 sin 0.2 sin moveto
0 setgray
() show


-4 slu -13 slu translate
4 slu 14 slu translate

% Workstation
%   name   - 
%   width  - 1
%   length - 1

newpath
0 0 moveto
0 slu 1 slu lineto
1 slu 1 slu lineto
1 slu 0 slu lineto
0 0 lineto
0.7 0.7 0.7 setrgbcolor
fill

newpath
0 0 moveto
0 slu 1 slu lineto
1 slu 1 slu lineto
1 slu 0 slu lineto
0 0 lineto
0 setgray
stroke

0.2 sin 0.2 sin moveto
0 setgray
() show


-4 slu -14 slu translate
4 slu 15 slu translate

% Workstation
%   name   - 
%   width  - 1
%   length - 1

newpath
0 0 moveto
0 slu 1 slu lineto
1 slu 1 slu lineto
1 slu 0 slu lineto
0 0 lineto
0.7 0.7 0.7 setrgbcolor
fill

newpath
0 0 moveto
0 slu 1 slu lineto
1 slu 1 slu lineto
1 slu 0 slu lineto
0 0 lineto
0 setgray
stroke

0.2 sin 0.2 sin moveto
0 setgray
() show


-4 slu -15 slu translate
4 slu 18 slu translate

% Workstation
%   name   - 
%   width  - 1
%   length - 1

newpath
0 0 moveto
0 slu 1 slu lineto
1 slu 1 slu lineto
1 slu 0 slu lineto
0 0 lineto
0.7 0.7 0.7 setrgbcolor
fill

newpath
0 0 moveto
0 slu 1 slu lineto
1 slu 1 slu lineto
1 slu 0 slu lineto
0 0 lineto
0 setgray
stroke

0.2 sin 0.2 sin moveto
0 setgray
() show


-4 slu -18 slu translate
4 slu 19 slu translate

% Workstation
%   name   - 
%   width  - 1
%   length - 1

newpath
0 0 moveto
0 slu 1 slu lineto
1 slu 1 slu lineto
1 slu 0 slu lineto
0 0 lineto
0.7 0.7 0.7 setrgbcolor
fill

newpath
0 0 moveto
0 slu 1 slu lineto
1 slu 1 slu lineto
1 slu 0 slu lineto
0 0 lineto
0 setgray
stroke

0.2 sin 0.2 sin moveto
0 setgray
() show


-4 slu -19 slu translate
4 slu 20 slu translate

% Workstation
%   name   - 
%   width  - 1
%   length - 1

newpath
0 0 moveto
0 slu 1 slu lineto
1 slu 1 slu lineto
1 slu 0 slu lineto
0 0 lineto
0.7 0.7 0.7 setrgbcolor
fill

newpath
0 0 moveto
0 slu 1 slu lineto
1 slu 1 slu lineto
1 slu 0 slu lineto
0 0 lineto
0 setgray
stroke

0.2 sin 0.2 sin moveto
0 setgray
() show


-4 slu -20 slu translate
7 slu 2 slu translate

% Workstation
%   name   - 
%   width  - 1
%   length - 1

newpath
0 0 moveto
0 slu 1 slu lineto
1 slu 1 slu lineto
1 slu 0 slu lineto
0 0 lineto
0.7 0.7 0.7 setrgbcolor
fill

newpath
0 0 moveto
0 slu 1 slu lineto
1 slu 1 slu lineto
1 slu 0 slu lineto
0 0 lineto
0 setgray
stroke

0.2 sin 0.2 sin moveto
0 setgray
() show


-7 slu -2 slu translate
7 slu 3 slu translate

% Workstation
%   name   - 
%   width  - 1
%   length - 1

newpath
0 0 moveto
0 slu 1 slu lineto
1 slu 1 slu lineto
1 slu 0 slu lineto
0 0 lineto
0.7 0.7 0.7 setrgbcolor
fill

newpath
0 0 moveto
0 slu 1 slu lineto
1 slu 1 slu lineto
1 slu 0 slu lineto
0 0 lineto
0 setgray
stroke

0.2 sin 0.2 sin moveto
0 setgray
() show


-7 slu -3 slu translate
7 slu 4 slu translate

% Workstation
%   name   - 
%   width  - 1
%   length - 1

newpath
0 0 moveto
0 slu 1 slu lineto
1 slu 1 slu lineto
1 slu 0 slu lineto
0 0 lineto
0.7 0.7 0.7 setrgbcolor
fill

newpath
0 0 moveto
0 slu 1 slu lineto
1 slu 1 slu lineto
1 slu 0 slu lineto
0 0 lineto
0 setgray
stroke

0.2 sin 0.2 sin moveto
0 setgray
() show


-7 slu -4 slu translate
7 slu 5 slu translate

% Workstation
%   name   - 
%   width  - 1
%   length - 1

newpath
0 0 moveto
0 slu 1 slu lineto
1 slu 1 slu lineto
1 slu 0 slu lineto
0 0 lineto
0.7 0.7 0.7 setrgbcolor
fill

newpath
0 0 moveto
0 slu 1 slu lineto
1 slu 1 slu lineto
1 slu 0 slu lineto
0 0 lineto
0 setgray
stroke

0.2 sin 0.2 sin moveto
0 setgray
() show


-7 slu -5 slu translate
7 slu 6 slu translate

% Workstation
%   name   - 
%   width  - 1
%   length - 1

newpath
0 0 moveto
0 slu 1 slu lineto
1 slu 1 slu lineto
1 slu 0 slu lineto
0 0 lineto
0.7 0.7 0.7 setrgbcolor
fill

newpath
0 0 moveto
0 slu 1 slu lineto
1 slu 1 slu lineto
1 slu 0 slu lineto
0 0 lineto
0 setgray
stroke

0.2 sin 0.2 sin moveto
0 setgray
() show


-7 slu -6 slu translate
7 slu 7 slu translate

% Workstation
%   name   - 
%   width  - 1
%   length - 1

newpath
0 0 moveto
0 slu 1 slu lineto
1 slu 1 slu lineto
1 slu 0 slu lineto
0 0 lineto
0.7 0.7 0.7 setrgbcolor
fill

newpath
0 0 moveto
0 slu 1 slu lineto
1 slu 1 slu lineto
1 slu 0 slu lineto
0 0 lineto
0 setgray
stroke

0.2 sin 0.2 sin moveto
0 setgray
() show


-7 slu -7 slu translate
7 slu 10 slu translate

% Workstation
%   name   - 
%   width  - 1
%   length - 1

newpath
0 0 moveto
0 slu 1 slu lineto
1 slu 1 slu lineto
1 slu 0 slu lineto
0 0 lineto
0.7 0.7 0.7 setrgbcolor
fill

newpath
0 0 moveto
0 slu 1 slu lineto
1 slu 1 slu lineto
1 slu 0 slu lineto
0 0 lineto
0 setgray
stroke

0.2 sin 0.2 sin moveto
0 setgray
() show


-7 slu -10 slu translate
7 slu 11 slu translate

% Workstation
%   name   - 
%   width  - 1
%   length - 1

newpath
0 0 moveto
0 slu 1 slu lineto
1 slu 1 slu lineto
1 slu 0 slu lineto
0 0 lineto
0.7 0.7 0.7 setrgbcolor
fill

newpath
0 0 moveto
0 slu 1 slu lineto
1 slu 1 slu lineto
1 slu 0 slu lineto
0 0 lineto
0 setgray
stroke

0.2 sin 0.2 sin moveto
0 setgray
() show


-7 slu -11 slu translate
7 slu 12 slu translate

% Workstation
%   name   - 
%   width  - 1
%   length - 1

newpath
0 0 moveto
0 slu 1 slu lineto
1 slu 1 slu lineto
1 slu 0 slu lineto
0 0 lineto
0.7 0.7 0.7 setrgbcolor
fill

newpath
0 0 moveto
0 slu 1 slu lineto
1 slu 1 slu lineto
1 slu 0 slu lineto
0 0 lineto
0 setgray
stroke

0.2 sin 0.2 sin moveto
0 setgray
() show


-7 slu -12 slu translate
7 slu 13 slu translate

% Workstation
%   name   - 
%   width  - 1
%   length - 1

newpath
0 0 moveto
0 slu 1 slu lineto
1 slu 1 slu lineto
1 slu 0 slu lineto
0 0 lineto
0.7 0.7 0.7 setrgbcolor
fill

newpath
0 0 moveto
0 slu 1 slu lineto
1 slu 1 slu lineto
1 slu 0 slu lineto
0 0 lineto
0 setgray
stroke

0.2 sin 0.2 sin moveto
0 setgray
() show


-7 slu -13 slu translate
7 slu 14 slu translate

% Workstation
%   name   - 
%   width  - 1
%   length - 1

newpath
0 0 moveto
0 slu 1 slu lineto
1 slu 1 slu lineto
1 slu 0 slu lineto
0 0 lineto
0.7 0.7 0.7 setrgbcolor
fill

newpath
0 0 moveto
0 slu 1 slu lineto
1 slu 1 slu lineto
1 slu 0 slu lineto
0 0 lineto
0 setgray
stroke

0.2 sin 0.2 sin moveto
0 setgray
() show


-7 slu -14 slu translate
7 slu 15 slu translate

% Workstation
%   name   - 
%   width  - 1
%   length - 1

newpath
0 0 moveto
0 slu 1 slu lineto
1 slu 1 slu lineto
1 slu 0 slu lineto
0 0 lineto
0.7 0.7 0.7 setrgbcolor
fill

newpath
0 0 moveto
0 slu 1 slu lineto
1 slu 1 slu lineto
1 slu 0 slu lineto
0 0 lineto
0 setgray
stroke

0.2 sin 0.2 sin moveto
0 setgray
() show


-7 slu -15 slu translate
7 slu 18 slu translate

% Workstation
%   name   - 
%   width  - 1
%   length - 1

newpath
0 0 moveto
0 slu 1 slu lineto
1 slu 1 slu lineto
1 slu 0 slu lineto
0 0 lineto
0.7 0.7 0.7 setrgbcolor
fill

newpath
0 0 moveto
0 slu 1 slu lineto
1 slu 1 slu lineto
1 slu 0 slu lineto
0 0 lineto
0 setgray
stroke

0.2 sin 0.2 sin moveto
0 setgray
() show


-7 slu -18 slu translate
7 slu 19 slu translate

% Workstation
%   name   - 
%   width  - 1
%   length - 1

newpath
0 0 moveto
0 slu 1 slu lineto
1 slu 1 slu lineto
1 slu 0 slu lineto
0 0 lineto
0.7 0.7 0.7 setrgbcolor
fill

newpath
0 0 moveto
0 slu 1 slu lineto
1 slu 1 slu lineto
1 slu 0 slu lineto
0 0 lineto
0 setgray
stroke

0.2 sin 0.2 sin moveto
0 setgray
() show


-7 slu -19 slu translate
7 slu 20 slu translate

% Workstation
%   name   - 
%   width  - 1
%   length - 1

newpath
0 0 moveto
0 slu 1 slu lineto
1 slu 1 slu lineto
1 slu 0 slu lineto
0 0 lineto
0.7 0.7 0.7 setrgbcolor
fill

newpath
0 0 moveto
0 slu 1 slu lineto
1 slu 1 slu lineto
1 slu 0 slu lineto
0 0 lineto
0 setgray
stroke

0.2 sin 0.2 sin moveto
0 setgray
() show


-7 slu -20 slu translate
10 slu 2 slu translate

% Workstation
%   name   - 
%   width  - 1
%   length - 1

newpath
0 0 moveto
0 slu 1 slu lineto
1 slu 1 slu lineto
1 slu 0 slu lineto
0 0 lineto
0.7 0.7 0.7 setrgbcolor
fill

newpath
0 0 moveto
0 slu 1 slu lineto
1 slu 1 slu lineto
1 slu 0 slu lineto
0 0 lineto
0 setgray
stroke

0.2 sin 0.2 sin moveto
0 setgray
() show


-10 slu -2 slu translate
10 slu 3 slu translate

% Workstation
%   name   - 
%   width  - 1
%   length - 1

newpath
0 0 moveto
0 slu 1 slu lineto
1 slu 1 slu lineto
1 slu 0 slu lineto
0 0 lineto
0.7 0.7 0.7 setrgbcolor
fill

newpath
0 0 moveto
0 slu 1 slu lineto
1 slu 1 slu lineto
1 slu 0 slu lineto
0 0 lineto
0 setgray
stroke

0.2 sin 0.2 sin moveto
0 setgray
() show


-10 slu -3 slu translate
10 slu 4 slu translate

% Workstation
%   name   - 
%   width  - 1
%   length - 1

newpath
0 0 moveto
0 slu 1 slu lineto
1 slu 1 slu lineto
1 slu 0 slu lineto
0 0 lineto
0.7 0.7 0.7 setrgbcolor
fill

newpath
0 0 moveto
0 slu 1 slu lineto
1 slu 1 slu lineto
1 slu 0 slu lineto
0 0 lineto
0 setgray
stroke

0.2 sin 0.2 sin moveto
0 setgray
() show


-10 slu -4 slu translate
10 slu 5 slu translate

% Workstation
%   name   - 
%   width  - 1
%   length - 1

newpath
0 0 moveto
0 slu 1 slu lineto
1 slu 1 slu lineto
1 slu 0 slu lineto
0 0 lineto
0.7 0.7 0.7 setrgbcolor
fill

newpath
0 0 moveto
0 slu 1 slu lineto
1 slu 1 slu lineto
1 slu 0 slu lineto
0 0 lineto
0 setgray
stroke

0.2 sin 0.2 sin moveto
0 setgray
() show


-10 slu -5 slu translate
10 slu 6 slu translate

% Workstation
%   name   - 
%   width  - 1
%   length - 1

newpath
0 0 moveto
0 slu 1 slu lineto
1 slu 1 slu lineto
1 slu 0 slu lineto
0 0 lineto
0.7 0.7 0.7 setrgbcolor
fill

newpath
0 0 moveto
0 slu 1 slu lineto
1 slu 1 slu lineto
1 slu 0 slu lineto
0 0 lineto
0 setgray
stroke

0.2 sin 0.2 sin moveto
0 setgray
() show


-10 slu -6 slu translate
10 slu 7 slu translate

% Workstation
%   name   - 
%   width  - 1
%   length - 1

newpath
0 0 moveto
0 slu 1 slu lineto
1 slu 1 slu lineto
1 slu 0 slu lineto
0 0 lineto
0.7 0.7 0.7 setrgbcolor
fill

newpath
0 0 moveto
0 slu 1 slu lineto
1 slu 1 slu lineto
1 slu 0 slu lineto
0 0 lineto
0 setgray
stroke

0.2 sin 0.2 sin moveto
0 setgray
() show


-10 slu -7 slu translate
10 slu 10 slu translate

% Workstation
%   name   - 
%   width  - 1
%   length - 1

newpath
0 0 moveto
0 slu 1 slu lineto
1 slu 1 slu lineto
1 slu 0 slu lineto
0 0 lineto
0.7 0.7 0.7 setrgbcolor
fill

newpath
0 0 moveto
0 slu 1 slu lineto
1 slu 1 slu lineto
1 slu 0 slu lineto
0 0 lineto
0 setgray
stroke

0.2 sin 0.2 sin moveto
0 setgray
() show


-10 slu -10 slu translate
10 slu 11 slu translate

% Workstation
%   name   - 
%   width  - 1
%   length - 1

newpath
0 0 moveto
0 slu 1 slu lineto
1 slu 1 slu lineto
1 slu 0 slu lineto
0 0 lineto
0.7 0.7 0.7 setrgbcolor
fill

newpath
0 0 moveto
0 slu 1 slu lineto
1 slu 1 slu lineto
1 slu 0 slu lineto
0 0 lineto
0 setgray
stroke

0.2 sin 0.2 sin moveto
0 setgray
() show


-10 slu -11 slu translate
10 slu 12 slu translate

% Workstation
%   name   - 
%   width  - 1
%   length - 1

newpath
0 0 moveto
0 slu 1 slu lineto
1 slu 1 slu lineto
1 slu 0 slu lineto
0 0 lineto
0.7 0.7 0.7 setrgbcolor
fill

newpath
0 0 moveto
0 slu 1 slu lineto
1 slu 1 slu lineto
1 slu 0 slu lineto
0 0 lineto
0 setgray
stroke

0.2 sin 0.2 sin moveto
0 setgray
() show


-10 slu -12 slu translate
10 slu 13 slu translate

% Workstation
%   name   - 
%   width  - 1
%   length - 1

newpath
0 0 moveto
0 slu 1 slu lineto
1 slu 1 slu lineto
1 slu 0 slu lineto
0 0 lineto
0.7 0.7 0.7 setrgbcolor
fill

newpath
0 0 moveto
0 slu 1 slu lineto
1 slu 1 slu lineto
1 slu 0 slu lineto
0 0 lineto
0 setgray
stroke

0.2 sin 0.2 sin moveto
0 setgray
() show


-10 slu -13 slu translate
10 slu 14 slu translate

% Workstation
%   name   - 
%   width  - 1
%   length - 1

newpath
0 0 moveto
0 slu 1 slu lineto
1 slu 1 slu lineto
1 slu 0 slu lineto
0 0 lineto
0.7 0.7 0.7 setrgbcolor
fill

newpath
0 0 moveto
0 slu 1 slu lineto
1 slu 1 slu lineto
1 slu 0 slu lineto
0 0 lineto
0 setgray
stroke

0.2 sin 0.2 sin moveto
0 setgray
() show


-10 slu -14 slu translate
10 slu 15 slu translate

% Workstation
%   name   - 
%   width  - 1
%   length - 1

newpath
0 0 moveto
0 slu 1 slu lineto
1 slu 1 slu lineto
1 slu 0 slu lineto
0 0 lineto
0.7 0.7 0.7 setrgbcolor
fill

newpath
0 0 moveto
0 slu 1 slu lineto
1 slu 1 slu lineto
1 slu 0 slu lineto
0 0 lineto
0 setgray
stroke

0.2 sin 0.2 sin moveto
0 setgray
() show


-10 slu -15 slu translate
10 slu 18 slu translate

% Workstation
%   name   - 
%   width  - 1
%   length - 1

newpath
0 0 moveto
0 slu 1 slu lineto
1 slu 1 slu lineto
1 slu 0 slu lineto
0 0 lineto
0.7 0.7 0.7 setrgbcolor
fill

newpath
0 0 moveto
0 slu 1 slu lineto
1 slu 1 slu lineto
1 slu 0 slu lineto
0 0 lineto
0 setgray
stroke

0.2 sin 0.2 sin moveto
0 setgray
() show


-10 slu -18 slu translate
10 slu 19 slu translate

% Workstation
%   name   - 
%   width  - 1
%   length - 1

newpath
0 0 moveto
0 slu 1 slu lineto
1 slu 1 slu lineto
1 slu 0 slu lineto
0 0 lineto
0.7 0.7 0.7 setrgbcolor
fill

newpath
0 0 moveto
0 slu 1 slu lineto
1 slu 1 slu lineto
1 slu 0 slu lineto
0 0 lineto
0 setgray
stroke

0.2 sin 0.2 sin moveto
0 setgray
() show


-10 slu -19 slu translate
10 slu 20 slu translate

% Workstation
%   name   - 
%   width  - 1
%   length - 1

newpath
0 0 moveto
0 slu 1 slu lineto
1 slu 1 slu lineto
1 slu 0 slu lineto
0 0 lineto
0.7 0.7 0.7 setrgbcolor
fill

newpath
0 0 moveto
0 slu 1 slu lineto
1 slu 1 slu lineto
1 slu 0 slu lineto
0 0 lineto
0 setgray
stroke

0.2 sin 0.2 sin moveto
0 setgray
() show


-10 slu -20 slu translate
1 slu 2 slu translate

% Workstation
%   name   - 01
%   width  - 1
%   length - 1

newpath
0 0 moveto
0 slu 1 slu lineto
1 slu 1 slu lineto
1 slu 0 slu lineto
0 0 lineto
0.7 0.7 0.7 setrgbcolor
fill

newpath
0 0 moveto
0 slu 1 slu lineto
1 slu 1 slu lineto
1 slu 0 slu lineto
0 0 lineto
0 setgray
stroke

0.2 sin 0.2 sin moveto
0 setgray
(01) show


-1 slu -2 slu translate
1 slu 3 slu translate

% Workstation
%   name   - 02
%   width  - 1
%   length - 1

newpath
0 0 moveto
0 slu 1 slu lineto
1 slu 1 slu lineto
1 slu 0 slu lineto
0 0 lineto
0.7 0.7 0.7 setrgbcolor
fill

newpath
0 0 moveto
0 slu 1 slu lineto
1 slu 1 slu lineto
1 slu 0 slu lineto
0 0 lineto
0 setgray
stroke

0.2 sin 0.2 sin moveto
0 setgray
(02) show


-1 slu -3 slu translate
1 slu 4 slu translate

% Workstation
%   name   - 03
%   width  - 1
%   length - 1

newpath
0 0 moveto
0 slu 1 slu lineto
1 slu 1 slu lineto
1 slu 0 slu lineto
0 0 lineto
0.7 0.7 0.7 setrgbcolor
fill

newpath
0 0 moveto
0 slu 1 slu lineto
1 slu 1 slu lineto
1 slu 0 slu lineto
0 0 lineto
0 setgray
stroke

0.2 sin 0.2 sin moveto
0 setgray
(03) show


-1 slu -4 slu translate
1 slu 5 slu translate

% Workstation
%   name   - 04
%   width  - 1
%   length - 1

newpath
0 0 moveto
0 slu 1 slu lineto
1 slu 1 slu lineto
1 slu 0 slu lineto
0 0 lineto
0.7 0.7 0.7 setrgbcolor
fill

newpath
0 0 moveto
0 slu 1 slu lineto
1 slu 1 slu lineto
1 slu 0 slu lineto
0 0 lineto
0 setgray
stroke

0.2 sin 0.2 sin moveto
0 setgray
(04) show


-1 slu -5 slu translate
1 slu 6 slu translate

% Workstation
%   name   - 05
%   width  - 1
%   length - 1

newpath
0 0 moveto
0 slu 1 slu lineto
1 slu 1 slu lineto
1 slu 0 slu lineto
0 0 lineto
0.7 0.7 0.7 setrgbcolor
fill

newpath
0 0 moveto
0 slu 1 slu lineto
1 slu 1 slu lineto
1 slu 0 slu lineto
0 0 lineto
0 setgray
stroke

0.2 sin 0.2 sin moveto
0 setgray
(05) show


-1 slu -6 slu translate
1 slu 7 slu translate

% Workstation
%   name   - 06
%   width  - 1
%   length - 1

newpath
0 0 moveto
0 slu 1 slu lineto
1 slu 1 slu lineto
1 slu 0 slu lineto
0 0 lineto
0.7 0.7 0.7 setrgbcolor
fill

newpath
0 0 moveto
0 slu 1 slu lineto
1 slu 1 slu lineto
1 slu 0 slu lineto
0 0 lineto
0 setgray
stroke

0.2 sin 0.2 sin moveto
0 setgray
(06) show


-1 slu -7 slu translate
4 slu 2 slu translate

% Workstation
%   name   - 07
%   width  - 1
%   length - 1

newpath
0 0 moveto
0 slu 1 slu lineto
1 slu 1 slu lineto
1 slu 0 slu lineto
0 0 lineto
0.7 0.7 0.7 setrgbcolor
fill

newpath
0 0 moveto
0 slu 1 slu lineto
1 slu 1 slu lineto
1 slu 0 slu lineto
0 0 lineto
0 setgray
stroke

0.2 sin 0.2 sin moveto
0 setgray
(07) show


-4 slu -2 slu translate
4 slu 3 slu translate

% Workstation
%   name   - 08
%   width  - 1
%   length - 1

newpath
0 0 moveto
0 slu 1 slu lineto
1 slu 1 slu lineto
1 slu 0 slu lineto
0 0 lineto
0.7 0.7 0.7 setrgbcolor
fill

newpath
0 0 moveto
0 slu 1 slu lineto
1 slu 1 slu lineto
1 slu 0 slu lineto
0 0 lineto
0 setgray
stroke

0.2 sin 0.2 sin moveto
0 setgray
(08) show


-4 slu -3 slu translate
4 slu 4 slu translate

% Workstation
%   name   - 09
%   width  - 1
%   length - 1

newpath
0 0 moveto
0 slu 1 slu lineto
1 slu 1 slu lineto
1 slu 0 slu lineto
0 0 lineto
0.7 0.7 0.7 setrgbcolor
fill

newpath
0 0 moveto
0 slu 1 slu lineto
1 slu 1 slu lineto
1 slu 0 slu lineto
0 0 lineto
0 setgray
stroke

0.2 sin 0.2 sin moveto
0 setgray
(09) show


-4 slu -4 slu translate
4 slu 5 slu translate

% Workstation
%   name   - 10
%   width  - 1
%   length - 1

newpath
0 0 moveto
0 slu 1 slu lineto
1 slu 1 slu lineto
1 slu 0 slu lineto
0 0 lineto
0.7 0.7 0.7 setrgbcolor
fill

newpath
0 0 moveto
0 slu 1 slu lineto
1 slu 1 slu lineto
1 slu 0 slu lineto
0 0 lineto
0 setgray
stroke

0.2 sin 0.2 sin moveto
0 setgray
(10) show


-4 slu -5 slu translate
4 slu 6 slu translate

% Workstation
%   name   - 11
%   width  - 1
%   length - 1

newpath
0 0 moveto
0 slu 1 slu lineto
1 slu 1 slu lineto
1 slu 0 slu lineto
0 0 lineto
0.7 0.7 0.7 setrgbcolor
fill

newpath
0 0 moveto
0 slu 1 slu lineto
1 slu 1 slu lineto
1 slu 0 slu lineto
0 0 lineto
0 setgray
stroke

0.2 sin 0.2 sin moveto
0 setgray
(11) show


-4 slu -6 slu translate
4 slu 7 slu translate

% Workstation
%   name   - 12
%   width  - 1
%   length - 1

newpath
0 0 moveto
0 slu 1 slu lineto
1 slu 1 slu lineto
1 slu 0 slu lineto
0 0 lineto
0.7 0.7 0.7 setrgbcolor
fill

newpath
0 0 moveto
0 slu 1 slu lineto
1 slu 1 slu lineto
1 slu 0 slu lineto
0 0 lineto
0 setgray
stroke

0.2 sin 0.2 sin moveto
0 setgray
(12) show


-4 slu -7 slu translate
7 slu 2 slu translate

% Workstation
%   name   - 13
%   width  - 1
%   length - 1

newpath
0 0 moveto
0 slu 1 slu lineto
1 slu 1 slu lineto
1 slu 0 slu lineto
0 0 lineto
0.7 0.7 0.7 setrgbcolor
fill

newpath
0 0 moveto
0 slu 1 slu lineto
1 slu 1 slu lineto
1 slu 0 slu lineto
0 0 lineto
0 setgray
stroke

0.2 sin 0.2 sin moveto
0 setgray
(13) show


-7 slu -2 slu translate
7 slu 3 slu translate

% Workstation
%   name   - 14
%   width  - 1
%   length - 1

newpath
0 0 moveto
0 slu 1 slu lineto
1 slu 1 slu lineto
1 slu 0 slu lineto
0 0 lineto
0.7 0.7 0.7 setrgbcolor
fill

newpath
0 0 moveto
0 slu 1 slu lineto
1 slu 1 slu lineto
1 slu 0 slu lineto
0 0 lineto
0 setgray
stroke

0.2 sin 0.2 sin moveto
0 setgray
(14) show


-7 slu -3 slu translate
7 slu 4 slu translate

% Workstation
%   name   - 15
%   width  - 1
%   length - 1

newpath
0 0 moveto
0 slu 1 slu lineto
1 slu 1 slu lineto
1 slu 0 slu lineto
0 0 lineto
0.7 0.7 0.7 setrgbcolor
fill

newpath
0 0 moveto
0 slu 1 slu lineto
1 slu 1 slu lineto
1 slu 0 slu lineto
0 0 lineto
0 setgray
stroke

0.2 sin 0.2 sin moveto
0 setgray
(15) show


-7 slu -4 slu translate
7 slu 5 slu translate

% Workstation
%   name   - 16
%   width  - 1
%   length - 1

newpath
0 0 moveto
0 slu 1 slu lineto
1 slu 1 slu lineto
1 slu 0 slu lineto
0 0 lineto
0.7 0.7 0.7 setrgbcolor
fill

newpath
0 0 moveto
0 slu 1 slu lineto
1 slu 1 slu lineto
1 slu 0 slu lineto
0 0 lineto
0 setgray
stroke

0.2 sin 0.2 sin moveto
0 setgray
(16) show


-7 slu -5 slu translate
7 slu 6 slu translate

% Workstation
%   name   - 17
%   width  - 1
%   length - 1

newpath
0 0 moveto
0 slu 1 slu lineto
1 slu 1 slu lineto
1 slu 0 slu lineto
0 0 lineto
0.7 0.7 0.7 setrgbcolor
fill

newpath
0 0 moveto
0 slu 1 slu lineto
1 slu 1 slu lineto
1 slu 0 slu lineto
0 0 lineto
0 setgray
stroke

0.2 sin 0.2 sin moveto
0 setgray
(17) show


-7 slu -6 slu translate
7 slu 7 slu translate

% Workstation
%   name   - 18
%   width  - 1
%   length - 1

newpath
0 0 moveto
0 slu 1 slu lineto
1 slu 1 slu lineto
1 slu 0 slu lineto
0 0 lineto
0.7 0.7 0.7 setrgbcolor
fill

newpath
0 0 moveto
0 slu 1 slu lineto
1 slu 1 slu lineto
1 slu 0 slu lineto
0 0 lineto
0 setgray
stroke

0.2 sin 0.2 sin moveto
0 setgray
(18) show


-7 slu -7 slu translate
10 slu 2 slu translate

% Workstation
%   name   - 19
%   width  - 1
%   length - 1

newpath
0 0 moveto
0 slu 1 slu lineto
1 slu 1 slu lineto
1 slu 0 slu lineto
0 0 lineto
0.7 0.7 0.7 setrgbcolor
fill

newpath
0 0 moveto
0 slu 1 slu lineto
1 slu 1 slu lineto
1 slu 0 slu lineto
0 0 lineto
0 setgray
stroke

0.2 sin 0.2 sin moveto
0 setgray
(19) show


-10 slu -2 slu translate
10 slu 3 slu translate

% Workstation
%   name   - 20
%   width  - 1
%   length - 1

newpath
0 0 moveto
0 slu 1 slu lineto
1 slu 1 slu lineto
1 slu 0 slu lineto
0 0 lineto
0.7 0.7 0.7 setrgbcolor
fill

newpath
0 0 moveto
0 slu 1 slu lineto
1 slu 1 slu lineto
1 slu 0 slu lineto
0 0 lineto
0 setgray
stroke

0.2 sin 0.2 sin moveto
0 setgray
(20) show


-10 slu -3 slu translate
10 slu 4 slu translate

% Workstation
%   name   - 21
%   width  - 1
%   length - 1

newpath
0 0 moveto
0 slu 1 slu lineto
1 slu 1 slu lineto
1 slu 0 slu lineto
0 0 lineto
0.7 0.7 0.7 setrgbcolor
fill

newpath
0 0 moveto
0 slu 1 slu lineto
1 slu 1 slu lineto
1 slu 0 slu lineto
0 0 lineto
0 setgray
stroke

0.2 sin 0.2 sin moveto
0 setgray
(21) show


-10 slu -4 slu translate
10 slu 5 slu translate

% Workstation
%   name   - 22
%   width  - 1
%   length - 1

newpath
0 0 moveto
0 slu 1 slu lineto
1 slu 1 slu lineto
1 slu 0 slu lineto
0 0 lineto
0.7 0.7 0.7 setrgbcolor
fill

newpath
0 0 moveto
0 slu 1 slu lineto
1 slu 1 slu lineto
1 slu 0 slu lineto
0 0 lineto
0 setgray
stroke

0.2 sin 0.2 sin moveto
0 setgray
(22) show


-10 slu -5 slu translate
10 slu 6 slu translate

% Workstation
%   name   - 23
%   width  - 1
%   length - 1

newpath
0 0 moveto
0 slu 1 slu lineto
1 slu 1 slu lineto
1 slu 0 slu lineto
0 0 lineto
0.7 0.7 0.7 setrgbcolor
fill

newpath
0 0 moveto
0 slu 1 slu lineto
1 slu 1 slu lineto
1 slu 0 slu lineto
0 0 lineto
0 setgray
stroke

0.2 sin 0.2 sin moveto
0 setgray
(23) show


-10 slu -6 slu translate
10 slu 7 slu translate

% Workstation
%   name   - 24
%   width  - 1
%   length - 1

newpath
0 0 moveto
0 slu 1 slu lineto
1 slu 1 slu lineto
1 slu 0 slu lineto
0 0 lineto
0.7 0.7 0.7 setrgbcolor
fill

newpath
0 0 moveto
0 slu 1 slu lineto
1 slu 1 slu lineto
1 slu 0 slu lineto
0 0 lineto
0 setgray
stroke

0.2 sin 0.2 sin moveto
0 setgray
(24) show


-10 slu -7 slu translate
1 slu 10 slu translate

% Workstation
%   name   - 25
%   width  - 1
%   length - 1

newpath
0 0 moveto
0 slu 1 slu lineto
1 slu 1 slu lineto
1 slu 0 slu lineto
0 0 lineto
0.7 0.7 0.7 setrgbcolor
fill

newpath
0 0 moveto
0 slu 1 slu lineto
1 slu 1 slu lineto
1 slu 0 slu lineto
0 0 lineto
0 setgray
stroke

0.2 sin 0.2 sin moveto
0 setgray
(25) show


-1 slu -10 slu translate
1 slu 11 slu translate

% Workstation
%   name   - 26
%   width  - 1
%   length - 1

newpath
0 0 moveto
0 slu 1 slu lineto
1 slu 1 slu lineto
1 slu 0 slu lineto
0 0 lineto
0.7 0.7 0.7 setrgbcolor
fill

newpath
0 0 moveto
0 slu 1 slu lineto
1 slu 1 slu lineto
1 slu 0 slu lineto
0 0 lineto
0 setgray
stroke

0.2 sin 0.2 sin moveto
0 setgray
(26) show


-1 slu -11 slu translate
1 slu 12 slu translate

% Workstation
%   name   - 27
%   width  - 1
%   length - 1

newpath
0 0 moveto
0 slu 1 slu lineto
1 slu 1 slu lineto
1 slu 0 slu lineto
0 0 lineto
0.7 0.7 0.7 setrgbcolor
fill

newpath
0 0 moveto
0 slu 1 slu lineto
1 slu 1 slu lineto
1 slu 0 slu lineto
0 0 lineto
0 setgray
stroke

0.2 sin 0.2 sin moveto
0 setgray
(27) show


-1 slu -12 slu translate
1 slu 13 slu translate

% Workstation
%   name   - 28
%   width  - 1
%   length - 1

newpath
0 0 moveto
0 slu 1 slu lineto
1 slu 1 slu lineto
1 slu 0 slu lineto
0 0 lineto
0.7 0.7 0.7 setrgbcolor
fill

newpath
0 0 moveto
0 slu 1 slu lineto
1 slu 1 slu lineto
1 slu 0 slu lineto
0 0 lineto
0 setgray
stroke

0.2 sin 0.2 sin moveto
0 setgray
(28) show


-1 slu -13 slu translate
1 slu 14 slu translate

% Workstation
%   name   - 29
%   width  - 1
%   length - 1

newpath
0 0 moveto
0 slu 1 slu lineto
1 slu 1 slu lineto
1 slu 0 slu lineto
0 0 lineto
0.7 0.7 0.7 setrgbcolor
fill

newpath
0 0 moveto
0 slu 1 slu lineto
1 slu 1 slu lineto
1 slu 0 slu lineto
0 0 lineto
0 setgray
stroke

0.2 sin 0.2 sin moveto
0 setgray
(29) show


-1 slu -14 slu translate
1 slu 15 slu translate

% Workstation
%   name   - 30
%   width  - 1
%   length - 1

newpath
0 0 moveto
0 slu 1 slu lineto
1 slu 1 slu lineto
1 slu 0 slu lineto
0 0 lineto
0.7 0.7 0.7 setrgbcolor
fill

newpath
0 0 moveto
0 slu 1 slu lineto
1 slu 1 slu lineto
1 slu 0 slu lineto
0 0 lineto
0 setgray
stroke

0.2 sin 0.2 sin moveto
0 setgray
(30) show


-1 slu -15 slu translate
4 slu 10 slu translate

% Workstation
%   name   - 31
%   width  - 1
%   length - 1

newpath
0 0 moveto
0 slu 1 slu lineto
1 slu 1 slu lineto
1 slu 0 slu lineto
0 0 lineto
0.7 0.7 0.7 setrgbcolor
fill

newpath
0 0 moveto
0 slu 1 slu lineto
1 slu 1 slu lineto
1 slu 0 slu lineto
0 0 lineto
0 setgray
stroke

0.2 sin 0.2 sin moveto
0 setgray
(31) show


-4 slu -10 slu translate
4 slu 11 slu translate

% Workstation
%   name   - 32
%   width  - 1
%   length - 1

newpath
0 0 moveto
0 slu 1 slu lineto
1 slu 1 slu lineto
1 slu 0 slu lineto
0 0 lineto
0.7 0.7 0.7 setrgbcolor
fill

newpath
0 0 moveto
0 slu 1 slu lineto
1 slu 1 slu lineto
1 slu 0 slu lineto
0 0 lineto
0 setgray
stroke

0.2 sin 0.2 sin moveto
0 setgray
(32) show


-4 slu -11 slu translate
4 slu 12 slu translate

% Workstation
%   name   - 33
%   width  - 1
%   length - 1

newpath
0 0 moveto
0 slu 1 slu lineto
1 slu 1 slu lineto
1 slu 0 slu lineto
0 0 lineto
0.7 0.7 0.7 setrgbcolor
fill

newpath
0 0 moveto
0 slu 1 slu lineto
1 slu 1 slu lineto
1 slu 0 slu lineto
0 0 lineto
0 setgray
stroke

0.2 sin 0.2 sin moveto
0 setgray
(33) show


-4 slu -12 slu translate
4 slu 13 slu translate

% Workstation
%   name   - 34
%   width  - 1
%   length - 1

newpath
0 0 moveto
0 slu 1 slu lineto
1 slu 1 slu lineto
1 slu 0 slu lineto
0 0 lineto
0.7 0.7 0.7 setrgbcolor
fill

newpath
0 0 moveto
0 slu 1 slu lineto
1 slu 1 slu lineto
1 slu 0 slu lineto
0 0 lineto
0 setgray
stroke

0.2 sin 0.2 sin moveto
0 setgray
(34) show


-4 slu -13 slu translate
4 slu 14 slu translate

% Workstation
%   name   - 35
%   width  - 1
%   length - 1

newpath
0 0 moveto
0 slu 1 slu lineto
1 slu 1 slu lineto
1 slu 0 slu lineto
0 0 lineto
0.7 0.7 0.7 setrgbcolor
fill

newpath
0 0 moveto
0 slu 1 slu lineto
1 slu 1 slu lineto
1 slu 0 slu lineto
0 0 lineto
0 setgray
stroke

0.2 sin 0.2 sin moveto
0 setgray
(35) show


-4 slu -14 slu translate
4 slu 15 slu translate

% Workstation
%   name   - 36
%   width  - 1
%   length - 1

newpath
0 0 moveto
0 slu 1 slu lineto
1 slu 1 slu lineto
1 slu 0 slu lineto
0 0 lineto
0.7 0.7 0.7 setrgbcolor
fill

newpath
0 0 moveto
0 slu 1 slu lineto
1 slu 1 slu lineto
1 slu 0 slu lineto
0 0 lineto
0 setgray
stroke

0.2 sin 0.2 sin moveto
0 setgray
(36) show


-4 slu -15 slu translate
7 slu 10 slu translate

% Workstation
%   name   - 37
%   width  - 1
%   length - 1

newpath
0 0 moveto
0 slu 1 slu lineto
1 slu 1 slu lineto
1 slu 0 slu lineto
0 0 lineto
0.7 0.7 0.7 setrgbcolor
fill

newpath
0 0 moveto
0 slu 1 slu lineto
1 slu 1 slu lineto
1 slu 0 slu lineto
0 0 lineto
0 setgray
stroke

0.2 sin 0.2 sin moveto
0 setgray
(37) show


-7 slu -10 slu translate
7 slu 11 slu translate

% Workstation
%   name   - 38
%   width  - 1
%   length - 1

newpath
0 0 moveto
0 slu 1 slu lineto
1 slu 1 slu lineto
1 slu 0 slu lineto
0 0 lineto
0.7 0.7 0.7 setrgbcolor
fill

newpath
0 0 moveto
0 slu 1 slu lineto
1 slu 1 slu lineto
1 slu 0 slu lineto
0 0 lineto
0 setgray
stroke

0.2 sin 0.2 sin moveto
0 setgray
(38) show


-7 slu -11 slu translate
7 slu 12 slu translate

% Workstation
%   name   - 39
%   width  - 1
%   length - 1

newpath
0 0 moveto
0 slu 1 slu lineto
1 slu 1 slu lineto
1 slu 0 slu lineto
0 0 lineto
0.7 0.7 0.7 setrgbcolor
fill

newpath
0 0 moveto
0 slu 1 slu lineto
1 slu 1 slu lineto
1 slu 0 slu lineto
0 0 lineto
0 setgray
stroke

0.2 sin 0.2 sin moveto
0 setgray
(39) show


-7 slu -12 slu translate
7 slu 13 slu translate

% Workstation
%   name   - 40
%   width  - 1
%   length - 1

newpath
0 0 moveto
0 slu 1 slu lineto
1 slu 1 slu lineto
1 slu 0 slu lineto
0 0 lineto
0.7 0.7 0.7 setrgbcolor
fill

newpath
0 0 moveto
0 slu 1 slu lineto
1 slu 1 slu lineto
1 slu 0 slu lineto
0 0 lineto
0 setgray
stroke

0.2 sin 0.2 sin moveto
0 setgray
(40) show


-7 slu -13 slu translate
7 slu 14 slu translate

% Workstation
%   name   - 41
%   width  - 1
%   length - 1

newpath
0 0 moveto
0 slu 1 slu lineto
1 slu 1 slu lineto
1 slu 0 slu lineto
0 0 lineto
0.7 0.7 0.7 setrgbcolor
fill

newpath
0 0 moveto
0 slu 1 slu lineto
1 slu 1 slu lineto
1 slu 0 slu lineto
0 0 lineto
0 setgray
stroke

0.2 sin 0.2 sin moveto
0 setgray
(41) show


-7 slu -14 slu translate
7 slu 15 slu translate

% Workstation
%   name   - 42
%   width  - 1
%   length - 1

newpath
0 0 moveto
0 slu 1 slu lineto
1 slu 1 slu lineto
1 slu 0 slu lineto
0 0 lineto
0.7 0.7 0.7 setrgbcolor
fill

newpath
0 0 moveto
0 slu 1 slu lineto
1 slu 1 slu lineto
1 slu 0 slu lineto
0 0 lineto
0 setgray
stroke

0.2 sin 0.2 sin moveto
0 setgray
(42) show


-7 slu -15 slu translate
10 slu 10 slu translate

% Workstation
%   name   - 43
%   width  - 1
%   length - 1

newpath
0 0 moveto
0 slu 1 slu lineto
1 slu 1 slu lineto
1 slu 0 slu lineto
0 0 lineto
0.7 0.7 0.7 setrgbcolor
fill

newpath
0 0 moveto
0 slu 1 slu lineto
1 slu 1 slu lineto
1 slu 0 slu lineto
0 0 lineto
0 setgray
stroke

0.2 sin 0.2 sin moveto
0 setgray
(43) show


-10 slu -10 slu translate
10 slu 11 slu translate

% Workstation
%   name   - 44
%   width  - 1
%   length - 1

newpath
0 0 moveto
0 slu 1 slu lineto
1 slu 1 slu lineto
1 slu 0 slu lineto
0 0 lineto
0.7 0.7 0.7 setrgbcolor
fill

newpath
0 0 moveto
0 slu 1 slu lineto
1 slu 1 slu lineto
1 slu 0 slu lineto
0 0 lineto
0 setgray
stroke

0.2 sin 0.2 sin moveto
0 setgray
(44) show


-10 slu -11 slu translate
10 slu 12 slu translate

% Workstation
%   name   - 45
%   width  - 1
%   length - 1

newpath
0 0 moveto
0 slu 1 slu lineto
1 slu 1 slu lineto
1 slu 0 slu lineto
0 0 lineto
0.7 0.7 0.7 setrgbcolor
fill

newpath
0 0 moveto
0 slu 1 slu lineto
1 slu 1 slu lineto
1 slu 0 slu lineto
0 0 lineto
0 setgray
stroke

0.2 sin 0.2 sin moveto
0 setgray
(45) show


-10 slu -12 slu translate
10 slu 13 slu translate

% Workstation
%   name   - 46
%   width  - 1
%   length - 1

newpath
0 0 moveto
0 slu 1 slu lineto
1 slu 1 slu lineto
1 slu 0 slu lineto
0 0 lineto
0.7 0.7 0.7 setrgbcolor
fill

newpath
0 0 moveto
0 slu 1 slu lineto
1 slu 1 slu lineto
1 slu 0 slu lineto
0 0 lineto
0 setgray
stroke

0.2 sin 0.2 sin moveto
0 setgray
(46) show


-10 slu -13 slu translate
10 slu 14 slu translate

% Workstation
%   name   - 47
%   width  - 1
%   length - 1

newpath
0 0 moveto
0 slu 1 slu lineto
1 slu 1 slu lineto
1 slu 0 slu lineto
0 0 lineto
0.7 0.7 0.7 setrgbcolor
fill

newpath
0 0 moveto
0 slu 1 slu lineto
1 slu 1 slu lineto
1 slu 0 slu lineto
0 0 lineto
0 setgray
stroke

0.2 sin 0.2 sin moveto
0 setgray
(47) show


-10 slu -14 slu translate
10 slu 15 slu translate

% Workstation
%   name   - 48
%   width  - 1
%   length - 1

newpath
0 0 moveto
0 slu 1 slu lineto
1 slu 1 slu lineto
1 slu 0 slu lineto
0 0 lineto
0.7 0.7 0.7 setrgbcolor
fill

newpath
0 0 moveto
0 slu 1 slu lineto
1 slu 1 slu lineto
1 slu 0 slu lineto
0 0 lineto
0 setgray
stroke

0.2 sin 0.2 sin moveto
0 setgray
(48) show


-10 slu -15 slu translate
1 slu 18 slu translate

% Workstation
%   name   - 49
%   width  - 1
%   length - 1

newpath
0 0 moveto
0 slu 1 slu lineto
1 slu 1 slu lineto
1 slu 0 slu lineto
0 0 lineto
0.7 0.7 0.7 setrgbcolor
fill

newpath
0 0 moveto
0 slu 1 slu lineto
1 slu 1 slu lineto
1 slu 0 slu lineto
0 0 lineto
0 setgray
stroke

0.2 sin 0.2 sin moveto
0 setgray
(49) show


-1 slu -18 slu translate
1 slu 19 slu translate

% Workstation
%   name   - 50
%   width  - 1
%   length - 1

newpath
0 0 moveto
0 slu 1 slu lineto
1 slu 1 slu lineto
1 slu 0 slu lineto
0 0 lineto
0.7 0.7 0.7 setrgbcolor
fill

newpath
0 0 moveto
0 slu 1 slu lineto
1 slu 1 slu lineto
1 slu 0 slu lineto
0 0 lineto
0 setgray
stroke

0.2 sin 0.2 sin moveto
0 setgray
(50) show


-1 slu -19 slu translate
1 slu 20 slu translate

% Workstation
%   name   - 51
%   width  - 1
%   length - 1

newpath
0 0 moveto
0 slu 1 slu lineto
1 slu 1 slu lineto
1 slu 0 slu lineto
0 0 lineto
0.7 0.7 0.7 setrgbcolor
fill

newpath
0 0 moveto
0 slu 1 slu lineto
1 slu 1 slu lineto
1 slu 0 slu lineto
0 0 lineto
0 setgray
stroke

0.2 sin 0.2 sin moveto
0 setgray
(51) show


-1 slu -20 slu translate
4 slu 18 slu translate

% Workstation
%   name   - 52
%   width  - 1
%   length - 1

newpath
0 0 moveto
0 slu 1 slu lineto
1 slu 1 slu lineto
1 slu 0 slu lineto
0 0 lineto
0.7 0.7 0.7 setrgbcolor
fill

newpath
0 0 moveto
0 slu 1 slu lineto
1 slu 1 slu lineto
1 slu 0 slu lineto
0 0 lineto
0 setgray
stroke

0.2 sin 0.2 sin moveto
0 setgray
(52) show


-4 slu -18 slu translate
4 slu 19 slu translate

% Workstation
%   name   - 53
%   width  - 1
%   length - 1

newpath
0 0 moveto
0 slu 1 slu lineto
1 slu 1 slu lineto
1 slu 0 slu lineto
0 0 lineto
0.7 0.7 0.7 setrgbcolor
fill

newpath
0 0 moveto
0 slu 1 slu lineto
1 slu 1 slu lineto
1 slu 0 slu lineto
0 0 lineto
0 setgray
stroke

0.2 sin 0.2 sin moveto
0 setgray
(53) show


-4 slu -19 slu translate
4 slu 20 slu translate

% Workstation
%   name   - 54
%   width  - 1
%   length - 1

newpath
0 0 moveto
0 slu 1 slu lineto
1 slu 1 slu lineto
1 slu 0 slu lineto
0 0 lineto
0.7 0.7 0.7 setrgbcolor
fill

newpath
0 0 moveto
0 slu 1 slu lineto
1 slu 1 slu lineto
1 slu 0 slu lineto
0 0 lineto
0 setgray
stroke

0.2 sin 0.2 sin moveto
0 setgray
(54) show


-4 slu -20 slu translate
7 slu 18 slu translate

% Workstation
%   name   - 55
%   width  - 1
%   length - 1

newpath
0 0 moveto
0 slu 1 slu lineto
1 slu 1 slu lineto
1 slu 0 slu lineto
0 0 lineto
0.7 0.7 0.7 setrgbcolor
fill

newpath
0 0 moveto
0 slu 1 slu lineto
1 slu 1 slu lineto
1 slu 0 slu lineto
0 0 lineto
0 setgray
stroke

0.2 sin 0.2 sin moveto
0 setgray
(55) show


-7 slu -18 slu translate
7 slu 19 slu translate

% Workstation
%   name   - 57
%   width  - 1
%   length - 1

newpath
0 0 moveto
0 slu 1 slu lineto
1 slu 1 slu lineto
1 slu 0 slu lineto
0 0 lineto
0.7 0.7 0.7 setrgbcolor
fill

newpath
0 0 moveto
0 slu 1 slu lineto
1 slu 1 slu lineto
1 slu 0 slu lineto
0 0 lineto
0 setgray
stroke

0.2 sin 0.2 sin moveto
0 setgray
(57) show


-7 slu -19 slu translate
7 slu 20 slu translate

% Workstation
%   name   - 56
%   width  - 1
%   length - 1

newpath
0 0 moveto
0 slu 1 slu lineto
1 slu 1 slu lineto
1 slu 0 slu lineto
0 0 lineto
0.7 0.7 0.7 setrgbcolor
fill

newpath
0 0 moveto
0 slu 1 slu lineto
1 slu 1 slu lineto
1 slu 0 slu lineto
0 0 lineto
0 setgray
stroke

0.2 sin 0.2 sin moveto
0 setgray
(56) show


-7 slu -20 slu translate
10 slu 18 slu translate

% Workstation
%   name   - 58
%   width  - 1
%   length - 1

newpath
0 0 moveto
0 slu 1 slu lineto
1 slu 1 slu lineto
1 slu 0 slu lineto
0 0 lineto
0.7 0.7 0.7 setrgbcolor
fill

newpath
0 0 moveto
0 slu 1 slu lineto
1 slu 1 slu lineto
1 slu 0 slu lineto
0 0 lineto
0 setgray
stroke

0.2 sin 0.2 sin moveto
0 setgray
(58) show


-10 slu -18 slu translate
10 slu 19 slu translate

% Workstation
%   name   - 59
%   width  - 1
%   length - 1

newpath
0 0 moveto
0 slu 1 slu lineto
1 slu 1 slu lineto
1 slu 0 slu lineto
0 0 lineto
0.7 0.7 0.7 setrgbcolor
fill

newpath
0 0 moveto
0 slu 1 slu lineto
1 slu 1 slu lineto
1 slu 0 slu lineto
0 0 lineto
0 setgray
stroke

0.2 sin 0.2 sin moveto
0 setgray
(59) show


-10 slu -19 slu translate
10 slu 20 slu translate

% Workstation
%   name   - 60
%   width  - 1
%   length - 1

newpath
0 0 moveto
0 slu 1 slu lineto
1 slu 1 slu lineto
1 slu 0 slu lineto
0 0 lineto
0.7 0.7 0.7 setrgbcolor
fill

newpath
0 0 moveto
0 slu 1 slu lineto
1 slu 1 slu lineto
1 slu 0 slu lineto
0 0 lineto
0 setgray
stroke

0.2 sin 0.2 sin moveto
0 setgray
(60) show


-10 slu -20 slu translate
showpage
